{
	"info": {
		"_postman_id": "51b3e38c-a5de-4b40-9692-98893decce49",
		"name": "Mifinity Demo",
		"schema": "https://schema.getpostman.com/json/collection/v2.1.0/collection.json"
	},
	"item": [
		{
			"name": "Registration",
			"request": {
				"method": "POST",
				"header": [
					{
						"key": "Content-Type",
						"value": "application/json"
					}
				],
				"body": {
					"mode": "raw",
					"raw": "{\n\t\"name\": \"Adi\",\n\t\"username\": \"adi\",\n\t\"password\": \"@oIyxklmk@\",\n\t\"isAdmin\": false\n}"
				},
				"url": {
					"raw": "http://localhost:8080/api/v1/registration",
					"protocol": "http",
					"host": [
						"localhost"
					],
					"port": "8080",
					"path": [
						"api",
						"v1",
						"registration"
					]
				}
			},
			"response": []
		},
		{
			"name": "Signin",
			"request": {
				"method": "POST",
				"header": [
					{
						"key": "Content-Type",
						"value": "application/json"
					}
				],
				"body": {
					"mode": "raw",
					"raw": "{\n\t\"username\": \"admin\",\n\t\"password\": \"@A9upo0a8\"\n}"
				},
				"url": {
					"raw": "http://localhost:8080/api/v1/signin",
					"protocol": "http",
					"host": [
						"localhost"
					],
					"port": "8080",
					"path": [
						"api",
						"v1",
						"signin"
					]
				}
			},
			"response": []
		},
		{
			"name": "Search",
			"request": {
				"method": "GET",
				"header": [
					{
						"key": "Authorization",
						"value": "Bearer eyJhbGciOiJIUzI1NiJ9.eyJqdGkiOiJNb24gSnVuIDI0IDE4OjI3OjE4IEJTVCAyMDE5IiwiaWF0IjoxNTYxMzk3MjM4LCJzdWIiOiJ7aWQ6IDUsIHVzZXJuYW1lOiBhZGkxMSwgaXNBZG1pbjogZmFsc2V9IiwiaXNzIjoiQWRpIiwiZXhwIjoxNTYxMzk3NDE4fQ.izqMP4N5YrABwM58H1X_dio0Z2WZyNe2A4tqcFlPLyA"
					}
				],
				"body": {},
				"url": {
					"raw": "http://localhost:8080/api/v1/cards/search/5391232171097614",
					"protocol": "http",
					"host": [
						"localhost"
					],
					"port": "8080",
					"path": [
						"api",
						"v1",
						"cards",
						"search",
						"5391232171097614"
					]
				}
			},
			"response": []
		},
		{
			"name": "Insert or Update Expiry",
			"request": {
				"method": "POST",
				"header": [
					{
						"key": "Authorization",
						"value": "Bearer eyJhbGciOiJIUzI1NiJ9.eyJqdGkiOiJUdWUgSnVuIDI1IDAyOjMzOjQxIEJTVCAyMDE5IiwiaWF0IjoxNTYxNDI2NDIxLCJzdWIiOiJ7aWQ6IDEwMDAxLCB1c2VybmFtZTogYWRtaW4sIGlzQWRtaW46IHRydWV9IiwiaXNzIjoiQWRpIiwiZXhwIjoxNTYxNDQ0NDIxfQ.5g3U6VjAWnzUR-fAAAKktJjlD-I0RQbT"
					},
					{
						"key": "Content-Type",
						"value": "application/json"
					}
				],
				"body": {
					"mode": "raw",
					"raw": "{\n\t\"number\": \"5391232171097615\",\n\t\"expiry\": \"21/11\",\n\t\"cvv\": 302\n}"
				},
				"url": {
					"raw": "http://localhost:8080/api/v1/cards/upsert",
					"protocol": "http",
					"host": [
						"localhost"
					],
					"port": "8080",
					"path": [
						"api",
						"v1",
						"cards",
						"upsert"
					]
				}
			},
			"response": []
		},
		{
			"name": "List All",
			"request": {
				"method": "GET",
				"header": [
					{
						"key": "Authorization",
						"value": "Bearer eyJhbGciOiJIUzI1NiJ9.eyJqdGkiOiJUdWUgSnVuIDI1IDAyOjI0OjUzIEJTVCAyMDE5IiwiaWF0IjoxNTYxNDI1ODkzLCJzdWIiOiJ7aWQ6IDEwMDAxLCB1c2VybmFtZTogYWRtaW4sIGlzQWRtaW46IHRydWV9IiwiaXNzIjoiQWRpIiwiZXhwIjoxNTYxNDQzODkzfQ.VC6JDVyAUoO9C5_rZHjv8DODsJqBuV9KkioqtbT3MWI"
					}
				],
				"body": {},
				"url": {
					"raw": "http://localhost:8080/api/v1/cards/list",
					"protocol": "http",
					"host": [
						"localhost"
					],
					"port": "8080",
					"path": [
						"api",
						"v1",
						"cards",
						"list"
					]
				}
			},
			"response": []
		}
	]
}